{
  "db": {
    "name": "db",
    "connector": "memory"
  },
  "maindb": {
    "host": "192.168.99.100",
    "port": 30306,
    "url": "mysql://dbuser:X=4_Ph5+u*d5Bx&Z@192.168.99.100:30306/main",
    "database": "main",
    "password": "X=4_Ph5+u*d5Bx&Z",
    "name": "maindb",
    "user": "dbuser",
    "connector": "mysql",
    "naming": "snakecase"
  }
}
